%YAML 1.1
%TAG !u! tag:unity3d.com,2011:
--- !u!114 &11400000
MonoBehaviour:
  m_ObjectHideFlags: 0
  m_CorrespondingSourceObject: {fileID: 0}
  m_PrefabInstance: {fileID: 0}
  m_PrefabAsset: {fileID: 0}
  m_GameObject: {fileID: 0}
  m_Enabled: 1
  m_EditorHideFlags: 0
  m_Script: {fileID: 11500000, guid: 705640c8a1446434f93f4dc03374e4eb, type: 3}
  m_Name: Medium
  m_EditorClassIdentifier: 
  timeBeforeMelt: 0.5
  scaleReductor: 0.005
  colliderReductor: 0.0005
  timerColliderActualisation: 0.9
  spriteColor: {r: 0, g: 1, b: 0.056061745, a: 1}
  scaleBall: 1
  speedFall: 2
